modelsim/npnl_code/source_20220731_Neuralpixel最终/BLOCK_DIGITAL_TB/BLOCK_DIGITAL.vcd
$date
	Thu Aug 18 11:49:09 2022
$end
$version
	ModelSim Version 10.4
$end
$timescale
	1ps
$end

$scope module BLOCK_DIGITAL_TB $end

$scope module block_digital $end
$var parameter 32 ! LEN_SPI $end
$var parameter 32 " BITS_CNT_SPI $end
$var parameter 32 # SPI_ADDR_LEN $end
$var parameter 32 $ SPI_DATA_LEN $end
$var parameter 32 % SPI_CODE_LEN $end
$var parameter 32 & BITS_ADC $end
$var parameter 32 ' REC_LEN $end
$var parameter 32 ( DAC_AMP_LEN $end
$var wire 1 ) clk_3p2M $end
$var wire 1 * rst_n $end
$var wire 1 + data_in [15] $end
$var wire 1 , data_in [14] $end
$var wire 1 - data_in [13] $end
$var wire 1 . data_in [12] $end
$var wire 1 / data_in [11] $end
$var wire 1 0 data_in [10] $end
$var wire 1 1 data_in [9] $end
$var wire 1 2 data_in [8] $end
$var wire 1 3 data_in [7] $end
$var wire 1 4 data_in [6] $end
$var wire 1 5 data_in [5] $end
$var wire 1 6 data_in [4] $end
$var wire 1 7 data_in [3] $end
$var wire 1 8 data_in [2] $end
$var wire 1 9 data_in [1] $end
$var wire 1 : data_in [0] $end
$var wire 1 ; addr [9] $end
$var wire 1 < addr [8] $end
$var wire 1 = addr [7] $end
$var wire 1 > addr [6] $end
$var wire 1 ? addr [5] $end
$var wire 1 @ addr [4] $end
$var wire 1 A addr [3] $end
$var wire 1 B addr [2] $end
$var wire 1 C addr [1] $end
$var wire 1 D addr [0] $end
$var wire 1 E code [5] $end
$var wire 1 F code [4] $end
$var wire 1 G code [3] $end
$var wire 1 H code [2] $end
$var wire 1 I code [1] $end
$var wire 1 J code [0] $end
$var wire 1 K reg_map_addr [7] $end
$var wire 1 L reg_map_addr [6] $end
$var wire 1 M reg_map_addr [5] $end
$var wire 1 N reg_map_addr [4] $end
$var wire 1 O reg_map_addr [3] $end
$var wire 1 P reg_map_addr [2] $end
$var wire 1 Q reg_map_addr [1] $end
$var wire 1 R reg_map_addr [0] $end
$var wire 1 S data_out [15] $end
$var wire 1 T data_out [14] $end
$var wire 1 U data_out [13] $end
$var wire 1 V data_out [12] $end
$var wire 1 W data_out [11] $end
$var wire 1 X data_out [10] $end
$var wire 1 Y data_out [9] $end
$var wire 1 Z data_out [8] $end
$var wire 1 [ data_out [7] $end
$var wire 1 \ data_out [6] $end
$var wire 1 ] data_out [5] $end
$var wire 1 ^ data_out [4] $end
$var wire 1 _ data_out [3] $end
$var wire 1 ` data_out [2] $end
$var wire 1 a data_out [1] $end
$var wire 1 b data_out [0] $end
$var wire 1 c Rec_0 [11] $end
$var wire 1 d Rec_0 [10] $end
$var wire 1 e Rec_0 [9] $end
$var wire 1 f Rec_0 [8] $end
$var wire 1 g Rec_0 [7] $end
$var wire 1 h Rec_0 [6] $end
$var wire 1 i Rec_0 [5] $end
$var wire 1 j Rec_0 [4] $end
$var wire 1 k Rec_0 [3] $end
$var wire 1 l Rec_0 [2] $end
$var wire 1 m Rec_0 [1] $end
$var wire 1 n Rec_0 [0] $end
$var wire 1 o Rec_1 [11] $end
$var wire 1 p Rec_1 [10] $end
$var wire 1 q Rec_1 [9] $end
$var wire 1 r Rec_1 [8] $end
$var wire 1 s Rec_1 [7] $end
$var wire 1 t Rec_1 [6] $end
$var wire 1 u Rec_1 [5] $end
$var wire 1 v Rec_1 [4] $end
$var wire 1 w Rec_1 [3] $end
$var wire 1 x Rec_1 [2] $end
$var wire 1 y Rec_1 [1] $end
$var wire 1 z Rec_1 [0] $end
$var wire 1 { Rec_2 [11] $end
$var wire 1 | Rec_2 [10] $end
$var wire 1 } Rec_2 [9] $end
$var wire 1 ~ Rec_2 [8] $end
$var wire 1 !! Rec_2 [7] $end
$var wire 1 "! Rec_2 [6] $end
$var wire 1 #! Rec_2 [5] $end
$var wire 1 $! Rec_2 [4] $end
$var wire 1 %! Rec_2 [3] $end
$var wire 1 &! Rec_2 [2] $end
$var wire 1 '! Rec_2 [1] $end
$var wire 1 (! Rec_2 [0] $end
$var wire 1 )! Rec_3 [11] $end
$var wire 1 *! Rec_3 [10] $end
$var wire 1 +! Rec_3 [9] $end
$var wire 1 ,! Rec_3 [8] $end
$var wire 1 -! Rec_3 [7] $end
$var wire 1 .! Rec_3 [6] $end
$var wire 1 /! Rec_3 [5] $end
$var wire 1 0! Rec_3 [4] $end
$var wire 1 1! Rec_3 [3] $end
$var wire 1 2! Rec_3 [2] $end
$var wire 1 3! Rec_3 [1] $end
$var wire 1 4! Rec_3 [0] $end
$var wire 1 5! D_HP [3] $end
$var wire 1 6! D_HP [2] $end
$var wire 1 7! D_HP [1] $end
$var wire 1 8! D_HP [0] $end
$var wire 1 9! SAMP_RATE_MUX [1] $end
$var wire 1 :! SAMP_RATE_MUX [0] $end
$var wire 1 ;! data_from_adc0 [11] $end
$var wire 1 <! data_from_adc0 [10] $end
$var wire 1 =! data_from_adc0 [9] $end
$var wire 1 >! data_from_adc0 [8] $end
$var wire 1 ?! data_from_adc0 [7] $end
$var wire 1 @! data_from_adc0 [6] $end
$var wire 1 A! data_from_adc0 [5] $end
$var wire 1 B! data_from_adc0 [4] $end
$var wire 1 C! data_from_adc0 [3] $end
$var wire 1 D! data_from_adc0 [2] $end
$var wire 1 E! data_from_adc0 [1] $end
$var wire 1 F! data_from_adc0 [0] $end
$var wire 1 G! data_from_adc1 [11] $end
$var wire 1 H! data_from_adc1 [10] $end
$var wire 1 I! data_from_adc1 [9] $end
$var wire 1 J! data_from_adc1 [8] $end
$var wire 1 K! data_from_adc1 [7] $end
$var wire 1 L! data_from_adc1 [6] $end
$var wire 1 M! data_from_adc1 [5] $end
$var wire 1 N! data_from_adc1 [4] $end
$var wire 1 O! data_from_adc1 [3] $end
$var wire 1 P! data_from_adc1 [2] $end
$var wire 1 Q! data_from_adc1 [1] $end
$var wire 1 R! data_from_adc1 [0] $end
$var wire 1 S! data_from_adc2 [11] $end
$var wire 1 T! data_from_adc2 [10] $end
$var wire 1 U! data_from_adc2 [9] $end
$var wire 1 V! data_from_adc2 [8] $end
$var wire 1 W! data_from_adc2 [7] $end
$var wire 1 X! data_from_adc2 [6] $end
$var wire 1 Y! data_from_adc2 [5] $end
$var wire 1 Z! data_from_adc2 [4] $end
$var wire 1 [! data_from_adc2 [3] $end
$var wire 1 \! data_from_adc2 [2] $end
$var wire 1 ]! data_from_adc2 [1] $end
$var wire 1 ^! data_from_adc2 [0] $end
$var wire 1 _! data_from_adc3 [11] $end
$var wire 1 `! data_from_adc3 [10] $end
$var wire 1 a! data_from_adc3 [9] $end
$var wire 1 b! data_from_adc3 [8] $end
$var wire 1 c! data_from_adc3 [7] $end
$var wire 1 d! data_from_adc3 [6] $end
$var wire 1 e! data_from_adc3 [5] $end
$var wire 1 f! data_from_adc3 [4] $end
$var wire 1 g! data_from_adc3 [3] $end
$var wire 1 h! data_from_adc3 [2] $end
$var wire 1 i! data_from_adc3 [1] $end
$var wire 1 j! data_from_adc3 [0] $end
$var wire 1 k! data_from_pre [12] $end
$var wire 1 l! data_from_pre [11] $end
$var wire 1 m! data_from_pre [10] $end
$var wire 1 n! data_from_pre [9] $end
$var wire 1 o! data_from_pre [8] $end
$var wire 1 p! data_from_pre [7] $end
$var wire 1 q! data_from_pre [6] $end
$var wire 1 r! data_from_pre [5] $end
$var wire 1 s! data_from_pre [4] $end
$var wire 1 t! data_from_pre [3] $end
$var wire 1 u! data_from_pre [2] $end
$var wire 1 v! data_from_pre [1] $end
$var wire 1 w! data_from_pre [0] $end
$var wire 1 x! data_to_post [12] $end
$var wire 1 y! data_to_post [11] $end
$var wire 1 z! data_to_post [10] $end
$var wire 1 {! data_to_post [9] $end
$var wire 1 |! data_to_post [8] $end
$var wire 1 }! data_to_post [7] $end
$var wire 1 ~! data_to_post [6] $end
$var wire 1 !" data_to_post [5] $end
$var wire 1 "" data_to_post [4] $end
$var wire 1 #" data_to_post [3] $end
$var wire 1 $" data_to_post [2] $end
$var wire 1 %" data_to_post [1] $end
$var wire 1 &" data_to_post [0] $end
$var wire 1 '" rst_syn_n $end
$var wire 1 (" SAMP $end
$var wire 1 )" COMP [3] $end
$var wire 1 *" COMP [2] $end
$var wire 1 +" COMP [1] $end
$var wire 1 ," COMP [0] $end
$var wire 1 -" WP0 [11] $end
$var wire 1 ." WP0 [10] $end
$var wire 1 /" WP0 [9] $end
$var wire 1 0" WP0 [8] $end
$var wire 1 1" WP0 [7] $end
$var wire 1 2" WP0 [6] $end
$var wire 1 3" WP0 [5] $end
$var wire 1 4" WP0 [4] $end
$var wire 1 5" WP0 [3] $end
$var wire 1 6" WP0 [2] $end
$var wire 1 7" WP0 [1] $end
$var wire 1 8" WP0 [0] $end
$var wire 1 9" WP1 [11] $end
$var wire 1 :" WP1 [10] $end
$var wire 1 ;" WP1 [9] $end
$var wire 1 <" WP1 [8] $end
$var wire 1 =" WP1 [7] $end
$var wire 1 >" WP1 [6] $end
$var wire 1 ?" WP1 [5] $end
$var wire 1 @" WP1 [4] $end
$var wire 1 A" WP1 [3] $end
$var wire 1 B" WP1 [2] $end
$var wire 1 C" WP1 [1] $end
$var wire 1 D" WP1 [0] $end
$var wire 1 E" WP2 [11] $end
$var wire 1 F" WP2 [10] $end
$var wire 1 G" WP2 [9] $end
$var wire 1 H" WP2 [8] $end
$var wire 1 I" WP2 [7] $end
$var wire 1 J" WP2 [6] $end
$var wire 1 K" WP2 [5] $end
$var wire 1 L" WP2 [4] $end
$var wire 1 M" WP2 [3] $end
$var wire 1 N" WP2 [2] $end
$var wire 1 O" WP2 [1] $end
$var wire 1 P" WP2 [0] $end
$var wire 1 Q" WP3 [11] $end
$var wire 1 R" WP3 [10] $end
$var wire 1 S" WP3 [9] $end
$var wire 1 T" WP3 [8] $end
$var wire 1 U" WP3 [7] $end
$var wire 1 V" WP3 [6] $end
$var wire 1 W" WP3 [5] $end
$var wire 1 X" WP3 [4] $end
$var wire 1 Y" WP3 [3] $end
$var wire 1 Z" WP3 [2] $end
$var wire 1 [" WP3 [1] $end
$var wire 1 \" WP3 [0] $end
$var wire 1 ]" SAMP_analog $end
$upscope $end
$upscope $end
$enddefinitions $end
#0
$dumpvars
b100000 !
b110 "
b1010 #
b10000 $
b110 %
b1100 &
b1100 '
b1001 (
x7"
x6"
x5"
x4"
x3"
x2"
x1"
x0"
x/"
x."
x-"
xC"
xB"
xA"
x@"
x?"
x>"
x="
x<"
x;"
x:"
x9"
xO"
xN"
xM"
xL"
xK"
xJ"
xI"
xH"
xG"
xF"
xE"
x["
xZ"
xY"
xX"
xW"
xV"
xU"
xT"
xS"
xR"
xQ"
0*
0)
0n
1m
1l
1k
1j
1i
1h
0g
0f
0e
0d
0c
0z
1y
1x
1w
1v
1u
1t
0s
0r
0q
0p
0o
0(!
1'!
1&!
1%!
1$!
1#!
1"!
0!!
0~
0}
0|
0{
04!
13!
12!
11!
10!
1/!
1.!
0-!
0,!
0+!
0*!
0)!
0:
09
08
07
06
05
04
03
02
01
00
0/
0.
0-
0,
0+
0D
0C
0B
0A
0@
0?
0>
0=
0<
0;
0J
0I
0H
0G
0F
0E
zb
za
z`
z_
z^
z]
z\
z[
zZ
zY
zX
zW
zV
zU
zT
zS
18!
17!
16!
15!
1("
x8"
xD"
xP"
x\"
1]"
0R
1Q
0P
0O
0N
0M
0L
0K
1w!
1v!
1u!
1t!
1s!
1r!
1q!
1p!
1o!
1n!
1m!
1l!
1k!
1&"
1%"
1$"
1#"
1""
1!"
1~!
1}!
1|!
1{!
1z!
1y!
1x!
1:!
19!
xF!
xE!
xD!
xC!
xB!
xA!
x@!
x?!
x>!
x=!
x<!
x;!
xR!
xQ!
xP!
xO!
xN!
xM!
xL!
xK!
xJ!
xI!
xH!
xG!
x^!
x]!
x\!
x[!
xZ!
xY!
xX!
xW!
xV!
xU!
xT!
xS!
xj!
xi!
xh!
xg!
xf!
xe!
xd!
xc!
xb!
xa!
x`!
x_!
0'"
0,"
0+"
0*"
0)"
$end
#273000
1*
#392000
1)
1*"
#488000
0)
#584000
1)
1,"
0*"
1'"
#680000
0)
#776000
1)
0]"
1)"
#872000
0)
0("
#968000
1)
0w!
0t!
0s!
0r!
0q!
0p!
0o!
0n!
0m!
0l!
0k!
1+"
0)"
#1064000
0)
#1160000
1)
1w!
0v!
0+"
1*"
1)"
#1256000
0)
#1352000
1)
x&"
x%"
x$"
x#"
x""
x!"
x~!
x}!
x|!
x{!
xz!
xy!
0x!
0w!
#1448000
0)
#1544000
1)
0&"
0%"
1$"
0#"
0""
0!"
0~!
0}!
0|!
0{!
0z!
0y!
1w!
1v!
0u!
0)"
#1640000
0)
#1736000
1)
1&"
1%"
0$"
0w!
0,"
1+"
0*"
#1832000
0)
#1928000
1)
0&"
1w!
0v!
1,"
0+"
#2024000
0)
#2120000
1)
1&"
0%"
0w!
1*"
1)"
#2216000
0)
#2312000
1)
0&"
1w!
1v!
1u!
1t!
1s!
1r!
1q!
1p!
1o!
1n!
1m!
1l!
1k!
0,"
1+"
0)"
#2408000
0)
#2504000
1)
1&"
1%"
1$"
1#"
1""
1!"
1~!
1}!
1|!
1{!
1z!
1y!
1x!
0w!
0t!
0r!
0q!
0p!
0o!
0n!
0m!
0l!
0k!
1,"
0+"
1)"
#2600000
0)
#2696000
1)
0&"
0#"
0!"
0~!
0}!
0|!
0{!
0z!
0y!
0x!
1w!
0v!
#2792000
0)
#2888000
1)
x&"
x%"
x$"
x#"
x""
x!"
x~!
x}!
x|!
x{!
xz!
xy!
0w!
0,"
#2984000
0)
#3080000
1)
0&"
0%"
1$"
0#"
1""
0!"
0~!
0}!
0|!
0{!
0z!
0y!
1w!
1v!
0u!
1,"
0*"
#3176000
0)
#3272000
1)
1&"
1%"
0$"
0w!
0,"
1+"
1*"
0)"
#3368000
0)
#3464000
1)
0&"
1w!
0v!
1,"
0+"
#3560000
0)
1("
#3656000
1)
1&"
0%"
0w!
0,"
1+"
0*"
1)"
#3752000
0)
#3848000
1)
0&"
1w!
1v!
1u!
1t!
1r!
1q!
1p!
1o!
1n!
1m!
1l!
1k!
1,"
0+"
1*"
0)"
#3944000
0)
#4040000
1)
1&"
1%"
1$"
1#"
1!"
1~!
1}!
1|!
1{!
1z!
1y!
1x!
0w!
0t!
0s!
0q!
0p!
0o!
0n!
0m!
0l!
0k!
1+"
#4136000
0)
#4232000
1)
x&"
x%"
x$"
x#"
x""
x!"
x~!
x}!
x|!
x{!
xz!
xy!
0x!
0r!
0,"
0*"
#4328000
0)
#4424000
1)
0&"
1%"
1$"
0#"
0""
0!"
0~!
0}!
0|!
0{!
0z!
0y!
1w!
0v!
1,"
1*"
1)"
#4520000
0)
#4616000
1)
1&"
0%"
0w!
0,"
0*"
0)"
#4712000
0)
#4808000
1)
0&"
1w!
1v!
0u!
1*"
1)"
#4904000
0)
#5000000
1)
1&"
1%"
0$"
0w!
0+"
0*"
#5096000
0)
#5192000
1)
0&"
1w!
0v!
1,"
1*"
0)"
#5288000
0)
#5384000
1)
1&"
0%"
0w!
0,"
1)"
#5480000
0)
#5576000
1)
0&"
1w!
1v!
1u!
1t!
1s!
1r!
1q!
1p!
1o!
1n!
1m!
1l!
1k!
1,"
#5672000
0)
#5768000
1)
x&"
x%"
x$"
x#"
x""
x!"
x~!
x}!
x|!
x{!
xz!
xy!
0w!
0t!
0r!
0q!
0p!
0o!
0n!
0m!
0l!
0k!
#5864000
0)
#5960000
1)
0&"
1%"
1$"
0#"
1""
0!"
0~!
0}!
0|!
0{!
0z!
0y!
1w!
0v!
0)"
#6056000
0)
#6152000
1)
1&"
0%"
0w!
1+"
0*"
#6248000
0)
#6344000
1)
0&"
1w!
1v!
0u!
0,"
1)"
#6440000
0)
#6536000
1)
1&"
1%"
0$"
0w!
0+"
0)"
#6632000
0)
#6728000
1)
0&"
1w!
0v!
#6824000
0)
#6920000
1)
1&"
0%"
0w!
1+"
1)"
#7016000
0)
#7112000
1)
0&"
1w!
1v!
1u!
1t!
1r!
1q!
1p!
1o!
1n!
1m!
1l!
1k!
1,"
0+"
1*"
#7208000
0)
#7304000
1)
x&"
x%"
x$"
x#"
x""
x!"
x~!
x}!
x|!
x{!
xz!
xy!
0w!
0t!
0s!
0q!
0p!
0o!
0n!
0m!
0l!
0k!
0,"
1+"
0)"
#7400000
0)
#7496000
1)
0&"
1%"
1$"
0#"
0""
1!"
0~!
0}!
0|!
0{!
0z!
0y!
1w!
0v!
1,"
0*"
#7592000
0)
#7688000
1)
1&"
0%"
0w!
0+"
1*"
1)"
#7784000
0)
#7880000
1)
0&"
1w!
1v!
0u!
1+"
0*"
0)"
#7976000
0)
#8072000
1)
1&"
1%"
0$"
0w!
1)"
#8168000
0)
#8264000
1)
0&"
1w!
0v!
0+"
1*"
0)"
#8360000
0)
#8456000
1)
1&"
0%"
0w!
0,"
1+"
0*"
#8552000
0)
#8648000
1)
1B
0&"
1w!
1v!
1u!
1t!
1s!
1q!
1p!
1o!
1n!
1m!
1l!
1k!
1G
1*"
1)"
#8744000
0)
1)!
1{
1o
1c
#8840000
1)
x&"
x%"
x$"
x#"
x""
x!"
x~!
x}!
x|!
x{!
xz!
xy!
0w!
0t!
0q!
0p!
0o!
0n!
0m!
0l!
0k!
1,"
0+"
#8936000
0)
#9032000
1)
0&"
1%"
1$"
0#"
1""
1!"
0~!
0}!
0|!
0{!
0z!
0y!
1w!
0v!
1+"
#9128000
0)
#9224000
1)
1&"
0%"
0w!
0*"
0)"
#9320000
0)
#9416000
1)
0&"
1w!
1v!
0u!
0,"
1)"
#9512000
0)
#9608000
1)
1&"
1%"
0$"
0w!
#9704000
0)
#9800000
1)
0&"
1w!
0v!
0+"
1*"
#9896000
0)
#9992000
1)
1&"
0%"
0w!
1+"
0*"
0)"
#10088000
0)
#10184000
1)
0&"
1w!
1v!
1u!
1t!
1q!
1p!
1o!
1n!
1m!
1l!
1k!
1)"
#10280000
0)
#10376000
1)
1&"
1%"
1$"
1#"
1~!
1}!
1|!
1{!
1z!
1y!
1x!
1,"
0+"
0)"
1Q"
1E"
19"
1-"
1;!
1G!
1S!
1_!
0R"
0S"
0T"
0U"
0V"
0W"
0X"
0Y"
0Z"
0["
0\"
0F"
0G"
0H"
0I"
0J"
0K"
0L"
0M"
0N"
0O"
0P"
0:"
0;"
0<"
0="
0>"
0?"
0@"
0A"
0B"
0C"
0D"
0."
0/"
00"
01"
02"
03"
04"
05"
06"
07"
08"
0E!
0D!
0C!
0B!
0A!
0@!
0?!
0>!
0=!
0<!
0Q!
0P!
0O!
0N!
0M!
0L!
0K!
0J!
0I!
0H!
0]!
0\!
0[!
0Z!
0Y!
0X!
0W!
0V!
0U!
0T!
0i!
0h!
0g!
0f!
0e!
0d!
0c!
0b!
0a!
0`!
#10472000
0)
#10568000
1)
0,"
1)"
#10664000
0)
#10760000
1)
1]"
#10856000
0)
#10952000
1)
1,"
#11048000
0)
#11144000
1)
1+"
#11240000
0)
#11336000
1)
0,"
1*"
0)"
#11432000
0)
#11528000
1)
#11624000
0)
#11720000
1)
1)"
#11816000
0)
#11912000
1)
0+"
#12008000
0)
#12104000
1)
1+"
0*"
#12200000
0)
#12296000
1)
1,"
#12392000
0)
#12488000
1)
0+"
0)"
#12584000
0)
#12680000
1)
1*"
#12776000
0)
#12872000
1)
1+"
1)"
#12968000
0)
#13064000
1)
0*"
#13160000
0)
#13256000
1)
0,"
#13352000
0)
#13448000
1)
1*"
#13544000
0)
#13640000
1)
1,"
0+"
0)"
#13736000
0)
#13832000
1)
0*"
#13928000
0)
#14024000
1)
1)"
#14120000
0)
#14216000
1)
0,"
1+"
0)"
#14312000
0)
#14408000
1)
0+"
1*"
1)"
#14504000
0)
#14600000
1)
1,"
1+"
#14696000
0)
#14792000
1)
#14888000
0)
#14984000
1)
0,"
0+"
0*"
#15080000
0)
#15176000
1)
1,"
1+"
1*"
0)"
#15272000
0)
#15368000
1)
0B
0G
1)"
#15464000
0)
#15560000
1)
0,"
0+"
#15656000
0)
#15752000
1)
1,"
1+"
0*"
#15848000
0)
#15944000
1)
0+"
#16040000
0)
#16136000
1)
0]"
#16232000
0)
0("
#16328000
1)
0,"
0)"
#16424000
0)
#16520000
1)
1,"
1+"
1*"
1R"
1F"
1:"
1."
1<!
1H!
1T!
1`!
0Q"
0_!
#16616000
0)
#16712000
1)
0+"
0*"
1S"
1G"
1;"
1/"
1=!
1I!
1U!
1a!
0R"
0F"
0:"
0H!
0T!
0`!
#16808000
0)
#16904000
1)
0,"
1+"
1*"
1T"
1H"
1<"
10"
1>!
1J!
1V!
1b!
0S"
0/"
0=!
0a!
#17000000
0)
#17096000
1)
0+"
1)"
1U"
1I"
1="
11"
1?!
1K!
1W!
1c!
0<"
00"
0>!
0J!
#17192000
0)
#17288000
1)
1+"
0*"
0)"
1V"
1J"
1>"
12"
1@!
1L!
1X!
1d!
0U"
0I"
01"
0?!
0W!
0c!
#17384000
0)
#17480000
1)
0+"
1)"
1W"
1K"
1?"
13"
1A!
1M!
1Y!
1e!
0J"
0>"
02"
0@!
0L!
0X!
#17576000
0)
#17672000
1)
1,"
1+"
1*"
0)"
1X"
1L"
1@"
14"
1B!
1N!
1Z!
1f!
0W"
0e!
#17768000
0)
#17864000
1)
0+"
1)"
1Y"
1M"
1A"
15"
1C!
1O!
1[!
1g!
0@"
0N!
#17960000
0)
#18056000
1)
0,"
1+"
0*"
0)"
1Z"
1N"
1B"
16"
1D!
1P!
1\!
1h!
0Y"
0M"
05"
0C!
0[!
0g!
#18152000
0)
#18248000
1)
1*"
1)"
1["
1O"
1C"
17"
1E!
1Q!
1]!
1i!
06"
0D!
#18344000
0)
#18440000
1)
1,"
0+"
1\"
1P"
1D"
18"
0C"
0Q!
#18536000
0)
#18632000
1)
0*"
1F!
0R!
0^!
1j!
#18728000
0)
#18824000
1)
1+"
1*"
#18920000
0)
1("
#19016000
1)
0*"
0)"
#19112000
0)
#19208000
1)
0+"
1*"
#19304000
0)
#19400000
1)
0,"
0*"
1)"
#19496000
0)
#19592000
1)
0$"
0#"
0~!
0}!
0|!
0{!
0x!
0w!
0t!
0s!
0r!
0q!
0p!
0o!
0n!
0m!
0l!
0k!
1,"
1+"
#19688000
0)
#19784000
1)
0&"
1$"
0""
0!"
0z!
0y!
1w!
0v!
0+"
#19880000
0)
#19976000
1)
1&"
0%"
0w!
1+"
1*"
#20072000
0)
#20168000
1)
0&"
1w!
1v!
0u!
0,"
0*"
#20264000
0)
#20360000
1)
1&"
1%"
0$"
0w!
0+"
#20456000
0)
#20552000
1)
0&"
1w!
0v!
1+"
1*"
0)"
#20648000
0)
#20744000
1)
1&"
0%"
0w!
1)"
#20840000
0)
#20936000
1)
0&"
1w!
1v!
1u!
1t!
1s!
1r!
1q!
1p!
1o!
1n!
1m!
1l!
1k!
0+"
#21032000
0)
#21128000
1)
1$"
1#"
1!"
1}!
1{!
1y!
0w!
0t!
0r!
0q!
0p!
0o!
0n!
0m!
0l!
0k!
1+"
0*"
#21224000
0)
#21320000
1)
1%"
0#"
1""
0!"
0}!
0{!
0y!
1w!
0v!
1*"
0)"
#21416000
0)
#21512000
1)
1&"
0%"
0w!
1,"
0*"
#21608000
0)
#21704000
1)
0&"
1w!
1v!
0u!
#21800000
0)
#21896000
1)
1&"
1%"
0$"
0w!
1*"
1)"
#21992000
0)
#22088000
1)
0&"
1w!
0v!
0*"
0)"
#22184000
0)
#22280000
1)
1&"
0%"
0w!
1*"
1)"
#22376000
0)
#22472000
1)
0&"
1w!
1v!
1u!
1t!
1r!
1q!
1p!
1o!
1n!
1m!
1l!
1k!
0,"
0+"
0)"
#22568000
0)
#22664000
1)
1%"
1$"
1!"
1|!
1{!
1y!
0w!
0t!
0s!
0q!
0p!
0o!
0n!
0m!
0l!
0k!
1,"
1+"
#22760000
0)
#22856000
1)
0""
0|!
0{!
0y!
1w!
0v!
0*"
1)"
#22952000
0)
#23048000
1)
1&"
0%"
0w!
0,"
1*"
0)"
#23144000
0)
#23240000
1)
0&"
1w!
1v!
0u!
0*"
1)"
#23336000
0)
#23432000
1)
1&"
1%"
0$"
0w!
1,"
0+"
#23528000
0)
#23624000
1)
0&"
1w!
0v!
1*"
#23720000
0)
#23816000
1)
1&"
0%"
0w!
0,"
1+"
0*"
#23912000
0)
#24008000
1)
0&"
1w!
1v!
1u!
1t!
1s!
1q!
1p!
1o!
1n!
1m!
1l!
1k!
1,"
0+"
1*"
0)"
#24104000
0)
#24200000
1)
1&"
1%"
1$"
1""
0!"
1~!
1|!
0w!
0t!
0q!
0p!
0o!
0n!
0m!
0l!
0k!
#24296000
0)
#24392000
1)
0&"
1!"
0~!
0|!
1w!
0v!
1+"
1)"
#24488000
0)
#24584000
1)
1&"
0%"
0w!
0+"
0*"
#24680000
0)
#24776000
1)
0&"
1w!
1v!
0u!
0,"
1*"
0)"
#24872000
0)
#24968000
1)
1&"
1%"
0$"
0w!
0*"
#25064000
0)
#25160000
1)
0&"
1w!
0v!
1+"
1)"
#25256000
0)
#25352000
1)
1&"
0%"
0w!
1,"
#25448000
0)
#25544000
1)
0&"
1w!
1v!
1u!
1t!
1q!
1p!
1o!
1n!
1m!
1l!
1k!
0,"
1*"
#25640000
0)
#25736000
1)
1&"
1%"
1$"
1#"
1~!
1}!
1|!
1{!
1z!
1y!
1x!
0+"
1Q"
1_!
0T"
0V"
0X"
0Z"
0["
0\"
0G"
0H"
0K"
0L"
0N"
0O"
0P"
0;"
0="
0?"
0A"
0B"
0D"
0."
03"
04"
07"
08"
0E!
0B!
0A!
0<!
0P!
0O!
0M!
0K!
0I!
0]!
0\!
0Z!
0Y!
0V!
0U!
0i!
0h!
0f!
0d!
0b!
#25832000
0)
#25928000
1)
1+"
0*"
#26024000
0)
#26120000
1)
1]"
1,"
0+"
1*"
#26216000
0)
#26312000
1)
1+"
0*"
0)"
#26408000
0)
#26504000
1)
0,"
1*"
#26600000
0)
#26696000
1)
1)"
#26792000
0)
#26888000
1)
1,"
0)"
#26984000
0)
#27080000
1)
0,"
0*"
1)"
#27176000
0)
#27272000
1)
1*"
0)"
#27368000
0)
#27464000
1)
0+"
0*"
1)"
#27560000
0)
#27656000
1)
1,"
#27752000
0)
#27848000
1)
0,"
#27944000
0)
#28040000
1)
1*"
0)"
#28136000
0)
#28232000
1)
1,"
1+"
0*"
#28328000
0)
#28424000
1)
0,"
0+"
1*"
#28520000
0)
#28616000
1)
1,"
0*"
1)"
#28712000
0)
#28808000
1)
1+"
#28904000
0)
#29000000
1)
0+"
1*"
#29096000
0)
#29192000
1)
0*"
#29288000
0)
#29384000
1)
1*"
#29480000
0)
#29576000
1)
0,"
1+"
0)"
#29672000
0)
#29768000
1)
0*"
1)"
#29864000
0)
#29960000
1)
1*"
0)"
#30056000
0)
#30152000
1)
1,"
0+"
#30248000
0)
#30344000
1)
0,"
1+"
#30440000
0)
#30536000
1)
0+"
#30632000
0)
#30728000
1)
1,"
1+"
#30824000
0)
#30920000
1)
0+"
0*"
1)"
#31016000
0)
#31112000
1)
0,"
1*"
0)"
#31208000
0)
#31304000
1)
0*"
1)"
#31400000
0)
#31496000
1)
0]"
#31592000
0)
0("
#31688000
1)
1,"
1*"
#31784000
0)
#31880000
1)
1+"
0)"
1R"
1F"
1:"
1."
1<!
1H!
1T!
1`!
0Q"
0_!
#31976000
0)
#32072000
1)
0,"
1)"
1S"
1G"
1;"
1/"
1=!
1I!
1U!
1a!
0."
0<!
#32168000
0)
#32264000
1)
0+"
0*"
1T"
1H"
1<"
10"
1>!
1J!
1V!
1b!
0G"
0;"
0/"
0=!
0I!
0U!
#32360000
0)
#32456000
1)
1*"
1U"
1I"
1="
11"
1?!
1K!
1W!
1c!
0<"
00"
0>!
0J!
#32552000
0)
#32648000
1)
1,"
1V"
1J"
1>"
12"
1@!
1L!
1X!
1d!
0="
0K!
#32744000
0)
#32840000
1)
0*"
1W"
1K"
1?"
13"
1A!
1M!
1Y!
1e!
0J"
0>"
0L!
0X!
#32936000
0)
#33032000
1)
0,"
1*"
1X"
1L"
1@"
14"
1B!
1N!
1Z!
1f!
0?"
03"
0A!
0M!
#33128000
0)
#33224000
1)
1+"
0)"
1Y"
1M"
1A"
15"
1C!
1O!
1[!
1g!
0X"
04"
0B!
0f!
#33320000
0)
#33416000
1)
0*"
1)"
1Z"
1N"
1B"
16"
1D!
1P!
1\!
1h!
0M"
05"
0C!
0[!
#33512000
0)
#33608000
1)
1,"
0+"
1*"
1["
1O"
1C"
17"
1E!
1Q!
1]!
1i!
0B"
0P!
#33704000
0)
#33800000
1)
0,"
1+"
0)"
1\"
1P"
1D"
18"
0["
07"
0E!
0i!
#33896000
0)
#33992000
1)
0+"
0*"
0F!
0j!
#34088000
0)
#34184000
1)
1,"
1+"
#34280000
0)
1("
#34376000
1)
0,"
1)"
#34472000
0)
#34568000
1)
1*"
#34664000
0)
#34760000
1)
0*"
#34856000
0)
#34952000
1)
0&"
0%"
0#"
0""
0!"
0|!
0{!
0z!
0x!
0w!
0t!
0s!
0r!
0q!
0p!
0o!
0n!
0m!
0l!
0k!
1,"
0+"
1*"
0)"
#35048000
0)
#35144000
1)
1%"
0~!
0}!
0y!
1w!
0v!
0,"
1+"
0*"
1)"
#35240000
0)
#35336000
1)
1&"
0%"
0w!
1,"
0+"
#35432000
0)
#35528000
1)
0&"
1w!
1v!
0u!
1+"
1*"
0)"
#35624000
0)
#35720000
1)
1&"
1%"
0$"
0w!
0,"
#35816000
0)
#35912000
1)
0&"
1w!
0v!
0+"
0*"
#36008000
0)
#36104000
1)
1&"
0%"
0w!
1+"
1*"
#36200000
0)
