modelsim/npnl_code/test_np/BLOCK_DIGITAL_TB/MAIN_FSM.vcd
$date
	Thu Aug 18 11:48:57 2022
$end
$version
	ModelSim Version 10.4
$end
$timescale
	1ps
$end

$scope module BLOCK_DIGITAL_TB $end

$scope module main_fsm $end
$var parameter 32 ! LEN_SPI $end
$var parameter 32 " SPI_ADDR_LEN $end
$var parameter 32 # SPI_DATA_LEN $end
$var parameter 32 $ SPI_CODE_LEN $end
$var parameter 32 % ROW_NUM $end
$var parameter 32 & BITS_ADC $end
$var wire 1 ' sck $end
$var wire 1 ( mosi $end
$var wire 1 ) cs_n $end
$var wire 1 * miso $end
$var wire 1 + rst_n $end
$var wire 1 , clk_50M $end
$var wire 1 - clk_3p2M $end
$var wire 1 . code [5] $end
$var wire 1 / code [4] $end
$var wire 1 0 code [3] $end
$var wire 1 1 code [2] $end
$var wire 1 2 code [1] $end
$var wire 1 3 code [0] $end
$var wire 1 4 addr [9] $end
$var wire 1 5 addr [8] $end
$var wire 1 6 addr [7] $end
$var wire 1 7 addr [6] $end
$var wire 1 8 addr [5] $end
$var wire 1 9 addr [4] $end
$var wire 1 : addr [3] $end
$var wire 1 ; addr [2] $end
$var wire 1 < addr [1] $end
$var wire 1 = addr [0] $end
$var wire 1 > data_in [15] $end
$var wire 1 ? data_in [14] $end
$var wire 1 @ data_in [13] $end
$var wire 1 A data_in [12] $end
$var wire 1 B data_in [11] $end
$var wire 1 C data_in [10] $end
$var wire 1 D data_in [9] $end
$var wire 1 E data_in [8] $end
$var wire 1 F data_in [7] $end
$var wire 1 G data_in [6] $end
$var wire 1 H data_in [5] $end
$var wire 1 I data_in [4] $end
$var wire 1 J data_in [3] $end
$var wire 1 K data_in [2] $end
$var wire 1 L data_in [1] $end
$var wire 1 M data_in [0] $end
$var wire 1 N data_out [15] $end
$var wire 1 O data_out [14] $end
$var wire 1 P data_out [13] $end
$var wire 1 Q data_out [12] $end
$var wire 1 R data_out [11] $end
$var wire 1 S data_out [10] $end
$var wire 1 T data_out [9] $end
$var wire 1 U data_out [8] $end
$var wire 1 V data_out [7] $end
$var wire 1 W data_out [6] $end
$var wire 1 X data_out [5] $end
$var wire 1 Y data_out [4] $end
$var wire 1 Z data_out [3] $end
$var wire 1 [ data_out [2] $end
$var wire 1 \ data_out [1] $end
$var wire 1 ] data_out [0] $end
$var wire 1 ^ data_to_elec $end
$var wire 1 _ clk_to_elec $end
$var wire 1 ` rst_n_to_elec $end
$var wire 1 a data_to_elec_chem $end
$var wire 1 b clk_to_elec_chem $end
$var wire 1 c rst_n_to_elec_chem $end
$var wire 1 d chem_out [7] $end
$var wire 1 e chem_out [6] $end
$var wire 1 f chem_out [5] $end
$var wire 1 g chem_out [4] $end
$var wire 1 h chem_out [3] $end
$var wire 1 i chem_out [2] $end
$var wire 1 j chem_out [1] $end
$var wire 1 k chem_out [0] $end
$var wire 1 l p_data [103] $end
$var wire 1 m p_data [102] $end
$var wire 1 n p_data [101] $end
$var wire 1 o p_data [100] $end
$var wire 1 p p_data [99] $end
$var wire 1 q p_data [98] $end
$var wire 1 r p_data [97] $end
$var wire 1 s p_data [96] $end
$var wire 1 t p_data [95] $end
$var wire 1 u p_data [94] $end
$var wire 1 v p_data [93] $end
$var wire 1 w p_data [92] $end
$var wire 1 x p_data [91] $end
$var wire 1 y p_data [90] $end
$var wire 1 z p_data [89] $end
$var wire 1 { p_data [88] $end
$var wire 1 | p_data [87] $end
$var wire 1 } p_data [86] $end
$var wire 1 ~ p_data [85] $end
$var wire 1 !! p_data [84] $end
$var wire 1 "! p_data [83] $end
$var wire 1 #! p_data [82] $end
$var wire 1 $! p_data [81] $end
$var wire 1 %! p_data [80] $end
$var wire 1 &! p_data [79] $end
$var wire 1 '! p_data [78] $end
$var wire 1 (! p_data [77] $end
$var wire 1 )! p_data [76] $end
$var wire 1 *! p_data [75] $end
$var wire 1 +! p_data [74] $end
$var wire 1 ,! p_data [73] $end
$var wire 1 -! p_data [72] $end
$var wire 1 .! p_data [71] $end
$var wire 1 /! p_data [70] $end
$var wire 1 0! p_data [69] $end
$var wire 1 1! p_data [68] $end
$var wire 1 2! p_data [67] $end
$var wire 1 3! p_data [66] $end
$var wire 1 4! p_data [65] $end
$var wire 1 5! p_data [64] $end
$var wire 1 6! p_data [63] $end
$var wire 1 7! p_data [62] $end
$var wire 1 8! p_data [61] $end
$var wire 1 9! p_data [60] $end
$var wire 1 :! p_data [59] $end
$var wire 1 ;! p_data [58] $end
$var wire 1 <! p_data [57] $end
$var wire 1 =! p_data [56] $end
$var wire 1 >! p_data [55] $end
$var wire 1 ?! p_data [54] $end
$var wire 1 @! p_data [53] $end
$var wire 1 A! p_data [52] $end
$var wire 1 B! p_data [51] $end
$var wire 1 C! p_data [50] $end
$var wire 1 D! p_data [49] $end
$var wire 1 E! p_data [48] $end
$var wire 1 F! p_data [47] $end
$var wire 1 G! p_data [46] $end
$var wire 1 H! p_data [45] $end
$var wire 1 I! p_data [44] $end
$var wire 1 J! p_data [43] $end
$var wire 1 K! p_data [42] $end
$var wire 1 L! p_data [41] $end
$var wire 1 M! p_data [40] $end
$var wire 1 N! p_data [39] $end
$var wire 1 O! p_data [38] $end
$var wire 1 P! p_data [37] $end
$var wire 1 Q! p_data [36] $end
$var wire 1 R! p_data [35] $end
$var wire 1 S! p_data [34] $end
$var wire 1 T! p_data [33] $end
$var wire 1 U! p_data [32] $end
$var wire 1 V! p_data [31] $end
$var wire 1 W! p_data [30] $end
$var wire 1 X! p_data [29] $end
$var wire 1 Y! p_data [28] $end
$var wire 1 Z! p_data [27] $end
$var wire 1 [! p_data [26] $end
$var wire 1 \! p_data [25] $end
$var wire 1 ]! p_data [24] $end
$var wire 1 ^! p_data [23] $end
$var wire 1 _! p_data [22] $end
$var wire 1 `! p_data [21] $end
$var wire 1 a! p_data [20] $end
$var wire 1 b! p_data [19] $end
$var wire 1 c! p_data [18] $end
$var wire 1 d! p_data [17] $end
$var wire 1 e! p_data [16] $end
$var wire 1 f! p_data [15] $end
$var wire 1 g! p_data [14] $end
$var wire 1 h! p_data [13] $end
$var wire 1 i! p_data [12] $end
$var wire 1 j! p_data [11] $end
$var wire 1 k! p_data [10] $end
$var wire 1 l! p_data [9] $end
$var wire 1 m! p_data [8] $end
$var wire 1 n! p_data [7] $end
$var wire 1 o! p_data [6] $end
$var wire 1 p! p_data [5] $end
$var wire 1 q! p_data [4] $end
$var wire 1 r! p_data [3] $end
$var wire 1 s! p_data [2] $end
$var wire 1 t! p_data [1] $end
$var wire 1 u! p_data [0] $end
$var wire 1 v! s_data [7] $end
$var wire 1 w! s_data [6] $end
$var wire 1 x! s_data [5] $end
$var wire 1 y! s_data [4] $end
$var wire 1 z! s_data [3] $end
$var wire 1 {! s_data [2] $end
$var wire 1 |! s_data [1] $end
$var wire 1 }! s_data [0] $end
$var wire 1 ~! data_valid [7] $end
$var wire 1 !" data_valid [6] $end
$var wire 1 "" data_valid [5] $end
$var wire 1 #" data_valid [4] $end
$var wire 1 $" data_valid [3] $end
$var wire 1 %" data_valid [2] $end
$var wire 1 &" data_valid [1] $end
$var wire 1 '" data_valid [0] $end
$var wire 1 (" rst_n_block $end
$var wire 1 )" tx_input [31] $end
$var wire 1 *" tx_input [30] $end
$var wire 1 +" tx_input [29] $end
$var wire 1 ," tx_input [28] $end
$var wire 1 -" tx_input [27] $end
$var wire 1 ." tx_input [26] $end
$var wire 1 /" tx_input [25] $end
$var wire 1 0" tx_input [24] $end
$var wire 1 1" tx_input [23] $end
$var wire 1 2" tx_input [22] $end
$var wire 1 3" tx_input [21] $end
$var wire 1 4" tx_input [20] $end
$var wire 1 5" tx_input [19] $end
$var wire 1 6" tx_input [18] $end
$var wire 1 7" tx_input [17] $end
$var wire 1 8" tx_input [16] $end
$var wire 1 9" tx_input [15] $end
$var wire 1 :" tx_input [14] $end
$var wire 1 ;" tx_input [13] $end
$var wire 1 <" tx_input [12] $end
$var wire 1 =" tx_input [11] $end
$var wire 1 >" tx_input [10] $end
$var wire 1 ?" tx_input [9] $end
$var wire 1 @" tx_input [8] $end
$var wire 1 A" tx_input [7] $end
$var wire 1 B" tx_input [6] $end
$var wire 1 C" tx_input [5] $end
$var wire 1 D" tx_input [4] $end
$var wire 1 E" tx_input [3] $end
$var wire 1 F" tx_input [2] $end
$var wire 1 G" tx_input [1] $end
$var wire 1 H" tx_input [0] $end
$var wire 1 I" push_tx $end
$var wire 1 J" ack_fetch_spi $end
$var wire 1 K" rx_output [31] $end
$var wire 1 L" rx_output [30] $end
$var wire 1 M" rx_output [29] $end
$var wire 1 N" rx_output [28] $end
$var wire 1 O" rx_output [27] $end
$var wire 1 P" rx_output [26] $end
$var wire 1 Q" rx_output [25] $end
$var wire 1 R" rx_output [24] $end
$var wire 1 S" rx_output [23] $end
$var wire 1 T" rx_output [22] $end
$var wire 1 U" rx_output [21] $end
$var wire 1 V" rx_output [20] $end
$var wire 1 W" rx_output [19] $end
$var wire 1 X" rx_output [18] $end
$var wire 1 Y" rx_output [17] $end
$var wire 1 Z" rx_output [16] $end
$var wire 1 [" rx_output [15] $end
$var wire 1 \" rx_output [14] $end
$var wire 1 ]" rx_output [13] $end
$var wire 1 ^" rx_output [12] $end
$var wire 1 _" rx_output [11] $end
$var wire 1 `" rx_output [10] $end
$var wire 1 a" rx_output [9] $end
$var wire 1 b" rx_output [8] $end
$var wire 1 c" rx_output [7] $end
$var wire 1 d" rx_output [6] $end
$var wire 1 e" rx_output [5] $end
$var wire 1 f" rx_output [4] $end
$var wire 1 g" rx_output [3] $end
$var wire 1 h" rx_output [2] $end
$var wire 1 i" rx_output [1] $end
$var wire 1 j" rx_output [0] $end
$var wire 1 k" spi_busy $end
$var wire 1 l" rdy_spi $end
$var wire 1 m" rst_syn_n $end
$upscope $end
$upscope $end
$enddefinitions $end
#0
$dumpvars
b100000 !
b1010 "
b10000 #
b110 $
b1000 %
b1100 &
0,
1'
0(
0*
1)
0^
0_
0`
0a
0b
0c
0H"
0G"
0F"
0E"
0D"
0C"
0B"
0A"
0@"
0?"
0>"
0="
0<"
0;"
0:"
09"
08"
07"
06"
05"
04"
03"
02"
01"
00"
0/"
0."
0-"
0,"
0+"
0*"
0)"
1I"
0J"
0j"
0i"
0h"
0g"
0f"
0e"
0d"
0c"
0b"
0a"
0`"
0_"
0^"
0]"
0\"
0["
0Z"
0Y"
0X"
0W"
0V"
0U"
0T"
0S"
0R"
0Q"
0P"
0O"
0N"
0M"
0L"
0K"
0k"
0l"
0m"
1u!
1t!
1s!
1r!
1q!
1p!
1o!
1n!
1m!
1l!
1k!
1j!
1i!
1h!
1g!
1f!
1e!
1d!
1c!
1b!
1a!
1`!
1_!
1^!
1]!
1\!
1[!
1Z!
1Y!
1X!
1W!
1V!
1U!
1T!
1S!
1R!
1Q!
1P!
1O!
1N!
1M!
1L!
1K!
1J!
1I!
1H!
1G!
1F!
1E!
1D!
1C!
1B!
1A!
1@!
1?!
1>!
1=!
1<!
1;!
1:!
19!
18!
17!
16!
15!
14!
13!
12!
11!
10!
1/!
1.!
1-!
1,!
1+!
1*!
1)!
1(!
1'!
1&!
1%!
1$!
1#!
1"!
1!!
1~
1}
1|
1{
1z
1y
1x
1w
1v
1u
1t
1s
1r
1q
1p
1o
1n
1m
1l
0k
0j
0i
0h
0g
0f
0e
0d
0+
0-
0M
0L
0K
0J
0I
0H
0G
0F
0E
0D
0C
0B
0A
0@
0?
0>
0=
0<
0;
0:
09
08
07
06
05
04
03
02
01
00
0/
0.
z]
z\
z[
zZ
zY
zX
zW
zV
zU
zT
zS
zR
zQ
zP
zO
zN
0}!
0|!
0{!
0z!
0y!
0x!
0w!
0v!
1'"
1&"
1%"
1$"
1#"
1""
1!"
1~!
0("
$end
#8000
1,
#16000
0,
#24000
1,
#32000
0,
#40000
1,
#48000
0,
#56000
1,
#64000
0,
#72000
1,
#80000
0,
#88000
1,
#96000
0,
#104000
1,
#112000
0,
#120000
1,
#128000
0,
#136000
1,
#144000
0,
#152000
1,
#160000
0,
#168000
1,
#176000
0,
#184000
1,
#192000
0,
#200000
1,
#208000
0,
#216000
1,
#224000
0,
#232000
1,
#240000
0,
#248000
1,
#256000
0,
#264000
1,
#272000
0,
#273000
1+
#280000
1,
#288000
0,
#296000
1,
1m"
1c
1`
#304000
0,
0'"
1}!
0&"
1|!
0%"
1{!
0$"
1z!
0#"
1y!
0""
1x!
0!"
1w!
0~!
1v!
#312000
1,
#320000
0,
#328000
1,
#336000
0,
#344000
1,
#352000
0,
#360000
1,
#368000
0,
#376000
1,
#384000
0,
#392000
1,
1-
#400000
0,
#408000
1,
#416000
0,
#424000
1,
#432000
0,
#440000
1,
#448000
0,
#456000
1,
#464000
0,
#472000
1,
#480000
0,
#488000
1,
0-
#496000
0,
1'"
0}!
1&"
0|!
1%"
0{!
1$"
0z!
1#"
0y!
1""
0x!
1!"
0w!
1~!
0v!
#504000
1,
#512000
0,
#520000
1,
#528000
0,
#536000
1,
#544000
0,
#552000
1,
#560000
0,
#568000
1,
#576000
0,
#584000
1,
1-
1("
#592000
0,
#600000
1,
#608000
0,
#616000
1,
#624000
0,
#632000
1,
#640000
0,
#648000
1,
#656000
0,
#664000
1,
#672000
0,
#680000
1,
0-
#688000
0,
#696000
1,
#704000
0,
#712000
1,
#720000
0,
#728000
1,
#736000
0,
#744000
1,
#752000
0,
#760000
1,
#768000
0,
#776000
1,
1-
#784000
0,
#792000
1,
#800000
0,
#808000
1,
#816000
0,
#824000
1,
#832000
0,
#840000
1,
#848000
0,
#856000
1,
#864000
0,
#872000
1,
0-
#880000
0,
#888000
1,
#896000
0,
#904000
1,
#912000
0,
#920000
1,
#928000
0,
#936000
1,
#944000
0,
#952000
1,
#960000
0,
#968000
1,
1-
#976000
0,
#984000
1,
#992000
0,
#1000000
1,
#1008000
0,
#1016000
1,
#1024000
0,
#1032000
1,
#1040000
0,
#1048000
1,
#1056000
0,
#1064000
1,
0-
#1072000
0,
#1080000
1,
#1088000
0,
#1096000
1,
#1104000
0,
#1112000
1,
#1120000
0,
#1128000
1,
#1136000
0,
#1144000
1,
#1152000
0,
#1160000
1,
1-
#1168000
0,
#1176000
1,
#1184000
0,
#1192000
1,
#1200000
0,
#1208000
1,
#1216000
0,
#1224000
1,
#1232000
0,
#1240000
1,
#1248000
0,
#1256000
1,
0-
#1264000
0,
#1272000
1,
#1280000
0,
#1288000
1,
#1296000
0,
#1304000
1,
#1312000
0,
#1320000
1,
#1328000
0,
#1336000
1,
#1344000
0,
#1352000
1,
1-
xu!
xt!
xs!
xr!
xq!
xp!
xo!
xn!
xm!
xl!
xk!
xj!
0i!
xh!
xg!
xf!
xe!
xd!
xc!
xb!
xa!
x`!
x_!
x^!
x]!
0\!
x[!
xZ!
xY!
xX!
xW!
xV!
xU!
xT!
xS!
xR!
xQ!
xP!
0O!
xN!
xM!
xL!
xK!
xJ!
xI!
xH!
xG!
xF!
xE!
xD!
xC!
0B!
xA!
x@!
x?!
x>!
x=!
x<!
x;!
x:!
x9!
x8!
x7!
x6!
05!
x4!
x3!
x2!
x1!
x0!
x/!
x.!
x-!
x,!
x+!
x*!
x)!
0(!
x'!
x&!
x%!
x$!
x#!
x"!
x!!
x~
x}
x|
x{
xz
0y
xx
xw
xv
xu
xt
xs
xr
xq
xp
xo
xn
xm
0l
#1360000
0,
#1368000
1,
#1376000
0,
#1384000
1,
#1392000
0,
#1400000
1,
#1408000
0,
#1416000
1,
#1424000
0,
#1432000
1,
#1440000
0,
#1448000
1,
0-
#1456000
0,
0'"
x}!
0&"
x|!
0%"
x{!
0$"
xz!
0#"
xy!
0""
xx!
0!"
xw!
0~!
xv!
#1464000
1,
#1472000
0,
#1480000
1,
#1488000
0,
#1496000
1,
#1504000
0,
#1512000
1,
#1520000
0,
#1528000
1,
#1536000
0,
#1544000
1,
1-
0u!
0t!
1s!
0r!
0q!
0p!
0o!
0n!
0m!
0l!
0k!
0j!
0h!
0g!
1f!
0e!
0d!
0c!
0b!
0a!
0`!
0_!
0^!
0]!
0[!
0Z!
1Y!
0X!
0W!
0V!
0U!
0T!
0S!
0R!
0Q!
0P!
0N!
0M!
1L!
0K!
0J!
0I!
0H!
0G!
0F!
0E!
0D!
0C!
0A!
0@!
1?!
0>!
0=!
0<!
0;!
0:!
09!
08!
07!
06!
04!
03!
12!
01!
00!
0/!
0.!
0-!
0,!
0+!
0*!
0)!
0'!
0&!
1%!
0$!
0#!
0"!
0!!
0~
0}
0|
0{
0z
0x
0w
1v
0u
0t
0s
0r
0q
0p
0o
0n
0m
#1552000
0,
#1560000
1,
#1568000
0,
#1576000
1,
#1584000
0,
#1592000
1,
#1600000
0,
#1608000
1,
#1616000
0,
#1624000
1,
#1632000
0,
#1640000
1,
0-
#1648000
0,
0}!
0|!
0{!
0z!
0y!
0x!
0w!
0v!
#1656000
1,
#1664000
0,
#1672000
1,
#1680000
0,
1}!
1|!
1{!
1z!
1y!
1x!
1w!
1v!
#1688000
1,
#1696000
0,
0}!
0|!
0{!
0z!
0y!
0x!
0w!
0v!
#1704000
1,
#1712000
0,
#1720000
1,
#1728000
0,
#1736000
1,
1-
1u!
1t!
0s!
1h!
1g!
0f!
1[!
1Z!
0Y!
1N!
1M!
0L!
1A!
1@!
0?!
14!
13!
02!
1'!
1&!
0%!
1x
1w
0v
#1744000
0,
#1752000
1,
#1760000
0,
#1768000
1,
#1776000
0,
#1784000
1,
#1792000
0,
#1800000
1,
#1808000
0,
#1816000
1,
#1824000
0,
#1832000
1,
0-
#1840000
0,
1}!
1|!
1{!
1z!
1y!
1x!
1w!
1v!
#1848000
1,
#1856000
0,
#1864000
1,
#1872000
0,
0}!
0|!
0{!
0z!
0y!
0x!
0w!
0v!
#1880000
1,
#1888000
0,
#1896000
1,
#1904000
0,
#1912000
1,
#1920000
0,
#1928000
1,
1-
0u!
0h!
0[!
0N!
0A!
04!
0'!
0x
#1936000
0,
#1944000
1,
#1952000
0,
#1960000
1,
#1968000
0,
#1976000
1,
#1984000
0,
#1992000
1,
#2000000
0,
#2008000
1,
#2016000
0,
#2024000
1,
0-
#2032000
0,
#2040000
1,
#2048000
0,
1}!
1|!
1{!
1z!
1y!
1x!
1w!
1v!
#2056000
1,
#2064000
0,
0}!
0|!
0{!
0z!
0y!
0x!
0w!
0v!
#2072000
1,
#2080000
0,
#2088000
1,
#2096000
0,
#2100000
0)
#2104000
1,
#2112000
0,
#2120000
1,
1-
1u!
0t!
1h!
0g!
1[!
0Z!
1N!
0M!
1A!
0@!
14!
03!
1'!
0&!
1x
0w
#2128000
0,
#2136000
1,
#2144000
0,
#2152000
1,
#2160000
0,
#2168000
1,
#2176000
0,
#2184000
1,
#2192000
0,
#2200000
0'
1,
#2208000
0,
#2216000
1,
0-
#2224000
0,
1}!
1|!
1{!
1z!
1y!
1x!
1w!
1v!
#2232000
1,
#2240000
0,
0}!
0|!
0{!
0z!
0y!
0x!
0w!
0v!
#2248000
1,
#2256000
0,
#2264000
1,
#2272000
0,
#2280000
1,
#2288000
0,
#2296000
1,
#2300000
1'
#2304000
0,
#2312000
1,
1-
0u!
0h!
0[!
0N!
0A!
04!
0'!
0x
#2320000
0,
#2328000
1,
#2336000
0,
#2344000
1,
#2352000
0,
#2360000
1,
1k"
#2368000
0,
#2376000
1,
#2384000
0,
#2392000
1,
#2400000
0'
0,
#2408000
1,
0-
#2416000
0,
#2424000
1,
#2432000
0,
#2440000
1,
#2448000
0,
#2456000
1,
#2464000
0,
#2472000
1,
#2480000
0,
#2488000
1,
#2496000
0,
#2500000
1'
#2504000
1,
1-
1u!
1t!
1s!
1r!
1q!
1p!
1o!
1n!
1m!
1l!
1k!
1j!
1i!
1h!
1g!
1f!
1e!
1d!
1c!
1b!
1a!
1`!
1_!
1^!
1]!
1\!
1[!
1Z!
1Y!
1X!
1W!
1V!
1U!
1T!
1S!
1R!
1Q!
1P!
1O!
1N!
1M!
1L!
1K!
1J!
1I!
1H!
1G!
1F!
1E!
1D!
1C!
1B!
1A!
1@!
1?!
1>!
1=!
1<!
1;!
1:!
19!
18!
17!
16!
15!
14!
13!
12!
11!
10!
1/!
1.!
1-!
1,!
1+!
1*!
1)!
1(!
1'!
1&!
1%!
1$!
1#!
1"!
1!!
1~
1}
1|
1{
1z
1y
1x
1w
1v
1u
1t
1s
1r
1q
1p
1o
1n
1m
1l
#2512000
0,
#2520000
1,
#2528000
0,
#2536000
1,
#2544000
0,
#2552000
1,
#2560000
0,
#2568000
1,
#2576000
0,
#2584000
1,
#2592000
0,
#2600000
0'
1,
0-
#2608000
0,
1'"
1&"
1%"
1$"
1#"
1""
1!"
1~!
#2616000
1,
#2624000
0,
#2632000
1,
#2640000
0,
#2648000
1,
#2656000
0,
#2664000
1,
#2672000
0,
#2680000
1,
#2688000
0,
#2696000
1,
1-
0u!
0r!
0p!
0o!
0n!
0m!
0l!
0k!
0j!
0i!
0h!
0e!
0c!
0b!
0a!
0`!
0_!
0^!
0]!
0\!
0[!
0X!
0V!
0U!
0T!
0S!
0R!
0Q!
0P!
0O!
0N!
0K!
0I!
0H!
0G!
0F!
0E!
0D!
0C!
0B!
0A!
0>!
0<!
0;!
0:!
09!
08!
07!
06!
05!
04!
01!
0/!
0.!
0-!
0,!
0+!
0*!
0)!
0(!
0'!
0$!
0"!
0!!
0~
0}
0|
0{
0z
0y
0x
0u
0s
0r
0q
0p
0o
0n
0m
0l
#2700000
1'
#2704000
0,
#2712000
1,
#2720000
0,
#2728000
1,
#2736000
0,
#2744000
1,
#2752000
0,
#2760000
1,
#2768000
0,
#2776000
1,
#2784000
0,
#2792000
1,
0-
#2800000
0'
0,
0'"
0&"
0%"
0$"
0#"
0""
0!"
0~!
#2808000
1,
#2816000
0,
1}!
1|!
1{!
1z!
1y!
1x!
1w!
1v!
#2824000
1,
#2832000
0,
#2840000
1,
#2848000
0,
0}!
0|!
0{!
0z!
0y!
0x!
0w!
0v!
#2856000
1,
#2864000
0,
1}!
1|!
1{!
1z!
1y!
1x!
1w!
1v!
#2872000
1,
#2880000
0,
0}!
0|!
0{!
0z!
0y!
0x!
0w!
0v!
#2888000
1,
1-
xu!
xt!
xs!
xr!
xq!
xp!
xo!
xn!
xm!
xl!
xk!
xj!
xh!
xg!
xf!
xe!
xd!
xc!
xb!
xa!
x`!
x_!
x^!
x]!
x[!
xZ!
xY!
xX!
xW!
xV!
xU!
xT!
xS!
xR!
xQ!
xP!
xN!
xM!
xL!
xK!
xJ!
xI!
xH!
xG!
xF!
xE!
xD!
xC!
xA!
x@!
x?!
x>!
x=!
x<!
x;!
x:!
x9!
x8!
x7!
x6!
x4!
x3!
x2!
x1!
x0!
x/!
x.!
x-!
x,!
x+!
x*!
x)!
x'!
x&!
x%!
x$!
x#!
x"!
x!!
x~
x}
x|
x{
xz
xx
xw
xv
xu
xt
xs
xr
xq
xp
xo
xn
xm
#2896000
0,
#2900000
1'
#2904000
1,
#2912000
0,
#2920000
1,
#2928000
0,
#2936000
1,
#2944000
0,
#2952000
1,
#2960000
0,
#2968000
1,
#2976000
0,
#2984000
1,
0-
#2992000
0,
x}!
x|!
x{!
xz!
xy!
xx!
xw!
xv!
#3000000
1k
0'
1,
#3008000
0,
#3016000
1,
#3024000
0,
#3032000
1,
#3040000
0,
#3048000
1,
#3056000
0,
#3064000
1,
#3072000
0,
#3080000
1,
1-
0u!
0t!
1s!
0r!
1q!
0p!
0o!
0n!
0m!
0l!
0k!
0j!
0h!
0g!
1f!
0e!
1d!
0c!
0b!
0a!
0`!
0_!
0^!
0]!
0[!
0Z!
1Y!
0X!
1W!
0V!
0U!
0T!
0S!
0R!
0Q!
0P!
0N!
0M!
1L!
0K!
1J!
0I!
0H!
0G!
0F!
0E!
0D!
0C!
0A!
0@!
1?!
0>!
1=!
0<!
0;!
0:!
09!
08!
07!
06!
04!
03!
12!
01!
10!
0/!
0.!
0-!
0,!
0+!
0*!
0)!
0'!
0&!
1%!
0$!
1#!
0"!
0!!
0~
0}
0|
0{
0z
0x
0w
1v
0u
1t
0s
0r
0q
0p
0o
0n
0m
#3088000
0,
#3096000
1,
#3100000
1'
#3104000
0,
#3112000
1,
#3120000
0,
#3128000
1,
#3136000
0,
#3144000
1,
#3152000
0,
#3160000
1,
#3168000
0,
#3176000
1,
0-
#3184000
0,
0}!
0|!
0{!
0z!
0y!
0x!
0w!
0v!
#3192000
1,
#3200000
0'
0,
#3208000
1,
#3216000
0,
1}!
1|!
1{!
1z!
1y!
1x!
1w!
1v!
#3224000
1,
#3232000
0,
0}!
0|!
0{!
0z!
0y!
0x!
0w!
0v!
#3240000
1,
#3248000
0,
1}!
1|!
1{!
1z!
1y!
1x!
1w!
1v!
#3256000
1,
#3264000
0,
0}!
0|!
0{!
0z!
0y!
0x!
0w!
0v!
#3272000
1,
1-
1u!
1t!
0s!
1h!
1g!
0f!
1[!
1Z!
0Y!
1N!
1M!
0L!
1A!
1@!
0?!
14!
13!
02!
1'!
1&!
0%!
1x
1w
0v
#3280000
0,
#3288000
1,
#3296000
0,
#3300000
1'
#3304000
1,
#3312000
0,
#3320000
1,
#3328000
0,
#3336000
1,
#3344000
0,
#3352000
1,
#3360000
0,
#3368000
1,
0-
#3376000
0,
1}!
1|!
1{!
1z!
1y!
1x!
1w!
1v!
#3384000
1,
#3392000
0,
#3400000
0'
1,
#3408000
0,
0}!
0|!
0{!
0z!
0y!
0x!
0w!
0v!
#3416000
1,
#3424000
0,
#3432000
1,
#3440000
0,
1}!
1|!
1{!
1z!
1y!
1x!
1w!
1v!
#3448000
1,
#3456000
0,
0}!
0|!
0{!
0z!
0y!
0x!
0w!
0v!
#3464000
1,
1-
0u!
0h!
0[!
0N!
0A!
04!
0'!
0x
#3472000
0,
#3480000
1,
#3488000
0,
#3496000
1,
#3500000
1'
#3504000
0,
#3512000
1,
#3520000
0,
#3528000
1,
#3536000
0,
#3544000
1,
#3552000
0,
#3560000
1,
0-
#3568000
0,
#3576000
1,
#3584000
0,
1}!
1|!
1{!
1z!
1y!
1x!
1w!
1v!
#3592000
1,
#3600000
0'
0,
0}!
0|!
0{!
0z!
0y!
0x!
0w!
0v!
#3608000
1,
#3616000
0,
#3624000
1,
#3632000
0,
1}!
1|!
1{!
1z!
1y!
1x!
1w!
1v!
#3640000
1,
#3648000
0,
0}!
0|!
0{!
0z!
0y!
0x!
0w!
0v!
#3656000
1,
1-
1u!
0t!
1h!
0g!
1[!
0Z!
1N!
0M!
1A!
0@!
14!
03!
1'!
0&!
1x
0w
#3664000
0,
#3672000
1,
#3680000
0,
#3688000
1,
#3696000
0,
#3700000
1'
#3704000
1,
#3712000
0,
#3720000
1,
#3728000
0,
#3736000
1,
#3744000
0,
#3752000
1,
0-
#3760000
0,
1}!
1|!
1{!
1z!
1y!
1x!
1w!
1v!
#3768000
1,
#3776000
0,
0}!
0|!
0{!
0z!
0y!
0x!
0w!
0v!
#3784000
1,
#3792000
0,
#3800000
0'
1,
#3808000
0,
#3816000
1,
#3824000
0,
1}!
1|!
1{!
1z!
1y!
1x!
1w!
1v!
#3832000
1,
#3840000
0,
0}!
0|!
0{!
0z!
0y!
0x!
0w!
0v!
#3848000
1,
1-
0u!
0h!
0[!
0N!
0A!
04!
0'!
0x
#3856000
0,
#3864000
1,
#3872000
0,
#3880000
1,
#3888000
0,
#3896000
1,
#3900000
1'
#3904000
0,
#3912000
1,
#3920000
0,
#3928000
1,
#3936000
0,
#3944000
1,
0-
#3952000
0,
#3960000
1,
#3968000
0,
#3976000
1,
#3984000
0,
#3992000
1,
#4000000
0'
0,
#4008000
1,
#4016000
0,
1}!
1|!
1{!
1z!
1y!
1x!
1w!
1v!
#4024000
1,
#4032000
0,
0}!
0|!
0{!
0z!
0y!
0x!
0w!
0v!
#4040000
1,
1-
1u!
1t!
1s!
1r!
1p!
1o!
1n!
1m!
1l!
1k!
1j!
1i!
1h!
1g!
1f!
1e!
1c!
1b!
1a!
1`!
1_!
1^!
1]!
1\!
1[!
1Z!
1Y!
1X!
1V!
1U!
1T!
1S!
1R!
1Q!
1P!
1O!
1N!
1M!
1L!
1K!
1I!
1H!
1G!
1F!
1E!
1D!
1C!
1B!
1A!
1@!
1?!
1>!
1<!
1;!
1:!
19!
18!
17!
16!
15!
14!
13!
12!
11!
1/!
1.!
1-!
1,!
1+!
1*!
1)!
1(!
1'!
1&!
1%!
1$!
1"!
1!!
1~
1}
1|
1{
1z
1y
1x
1w
1v
1u
1s
1r
1q
1p
1o
1n
1m
1l
#4048000
0,
#4056000
1,
#4064000
0,
#4072000
1,
#4080000
0,
#4088000
1,
#4096000
0,
#4100000
1'
#4104000
1,
#4112000
0,
#4120000
1,
#4128000
0,
#4136000
1,
0-
#4144000
0,
1'"
1&"
1%"
1$"
1#"
1""
1!"
1~!
#4152000
1,
#4160000
0,
#4168000
1,
#4176000
0,
#4184000
1,
#4192000
0,
#4200000
0'
1,
#4208000
0,
#4216000
1,
#4224000
0,
